[
    {
        "ORDER": {
            "ORDER_NUMBER": "112233445566",
            "PO_NUMBER": "123456789",
            "items": [
                {
                    "carrier": "UPS",
                    "line_number": "1",
                    "product_desc": "Dailies AquaComfortPlus US - Trial 5 PACK",
                    "product_upc": "846566858231",
                    "qty_backordered": "0",
                    "qty_canceled": "0",
                    "qty_shipped": "2",
                    "ship_date": "20171004",
                    "status": "Shipped",
                    "tracking_number": "1Z97FF130353052180",
                    "tracking_url": "https://wwwapps.ups.com/etracking/tracking.cgi?tracknum=1Z97FF130353052180"
                },
                {
                    "carrier": "UPS",
                    "line_number": "2",
                    "product_desc": "Dailies AquaComfortPlus Toric - Trial 5 PACK",
                    "product_upc": "630175528810",
                    "qty_backordered": "0",
                    "qty_canceled": "0",
                    "qty_shipped": "1",
                    "ship_date": "20171004",
                    "status": "Shipped",
                    "tracking_number": "1Z97FF130353052180",
                    "tracking_url": "https://wwwapps.ups.com/etracking/tracking.cgi?tracknum=1Z97FF130353052180"
                },
                {
                    "carrier": "UPS",
                    "line_number": "3",
                    "product_desc": "1-DAY Acuvue Moist - Trials 10 PACK",
                    "product_upc": "733905618437",
                    "qty_backordered": "0",
                    "qty_canceled": "0",
                    "qty_shipped": "1",
                    "ship_date": "20171004",
                    "status": "Shipped",
                    "tracking_number": "1Z97FF130353052180",
                    "tracking_url": "https://wwwapps.ups.com/etracking/tracking.cgi?tracknum=1Z97FF130353052180"
                },
                {
                    "carrier": "UPS",
                    "line_number": "4",
                    "product_desc": "1-DAY Acuvue Moist for Astigmatism - Trials 5 PACK",
                    "product_upc": "733905259586",
                    "qty_backordered": "0",
                    "qty_canceled": "0",
                    "qty_shipped": "1",
                    "ship_date": "20171004",
                    "status": "Shipped",
                    "tracking_number": "1Z97FF130353052180",
                    "tracking_url": "https://wwwapps.ups.com/etracking/tracking.cgi?tracknum=1Z97FF130353052180"
                }
            ]
        }
    }
]
